<define-tag pagetitle>DLA-935-1 lxterminal</define-tag>
<define-tag report_date>2017-5-10</define-tag>
<define-tag secrefs>CVE-2016-10369 Bug##862098</define-tag>
<define-tag packages>lxterminal</define-tag>
<define-tag isvulnerable>yes</define-tag>
<define-tag fixed>yes</define-tag>
<define-tag fixed-section>no</define-tag>

#use wml::debian::security

