<define-tag pagetitle>DLA-2287-1 poppler</define-tag>
<define-tag report_date>2020-07-23</define-tag>
<define-tag secrefs>CVE-2017-18267 CVE-2018-16646 CVE-2018-20481 CVE-2018-21009 CVE-2019-9200 CVE-2019-9631 CVE-2019-10872 CVE-2019-12293 Bug#898357 Bug#909802 Bug#917325 Bug#923414 Bug#926530 Bug#926673 Bug#929423</define-tag>
<define-tag packages>poppler</define-tag>
<define-tag isvulnerable>yes</define-tag>
<define-tag fixed>yes</define-tag>
<define-tag fixed-section>no</define-tag>

#use wml::debian::security

