<define-tag pagetitle>DLA-1808-1 sox</define-tag>
<define-tag report_date>2019-05-28</define-tag>
<define-tag secrefs>CVE-2019-8354 CVE-2019-8355 CVE-2019-8356 CVE-2019-8357 Bug#927906</define-tag>
<define-tag packages>sox</define-tag>
<define-tag isvulnerable>yes</define-tag>
<define-tag fixed>yes</define-tag>
<define-tag fixed-section>no</define-tag>

#use wml::debian::security

