<define-tag pagetitle>DLA-1811-1 miniupnpd</define-tag>
<define-tag report_date>2019-5-30</define-tag>
<define-tag secrefs>CVE-2017-1000494 CVE-2019-12107 CVE-2019-12108 CVE-2019-12109  CVE-2019-12110 CVE-2019-12111</define-tag>
<define-tag packages>miniupnpd</define-tag>
<define-tag isvulnerable>yes</define-tag>
<define-tag fixed>yes</define-tag>
<define-tag fixed-section>no</define-tag>

#use wml::debian::security

