<define-tag pagetitle>DLA-477-1 librsvg</define-tag>
<define-tag report_date>2016-5-17</define-tag>
<define-tag secrefs>CVE-2015-7558 CVE-2016-4347 CVE-2016-4348</define-tag>
<define-tag packages>librsvg</define-tag>
<define-tag isvulnerable>yes</define-tag>
<define-tag fixed>yes</define-tag>
<define-tag fixed-section>no</define-tag>

#use wml::debian::security

