<define-tag pagetitle>DLA-636-1 firefox-esr</define-tag>
<define-tag report_date>2016-9-27</define-tag>
<define-tag secrefs>CVE-2016-5250 CVE-2016-5257 CVE-2016-5261 CVE-2016-5270 CVE-2016-5272 CVE-2016-5274 CVE-2016-5276 CVE-2016-5277 CVE-2016-5278 CVE-2016-5280 CVE-2016-5281 CVE-2016-5284</define-tag>
<define-tag packages>firefox-esr</define-tag>
<define-tag isvulnerable>yes</define-tag>
<define-tag fixed>yes</define-tag>
<define-tag fixed-section>no</define-tag>

#use wml::debian::security

